<?xml version="1.0" encoding="UTF-8" standalone="no"?>
<svg
   xmlns:dc="http://purl.org/dc/elements/1.1/"
   xmlns:cc="http://creativecommons.org/ns#"
   xmlns:rdf="http://www.w3.org/1999/02/22-rdf-syntax-ns#"
   xmlns:svg="http://www.w3.org/2000/svg"
   xmlns="http://www.w3.org/2000/svg"
   xmlns:sodipodi="http://sodipodi.sourceforge.net/DTD/sodipodi-0.dtd"
   xmlns:inkscape="http://www.inkscape.org/namespaces/inkscape"
   version="1.1"
   id="svg1"
   width="16"
   height="16"
   viewBox="0 0 16 16"
   sodipodi:docname="edit-select-same-stroke-style-symbolic.svg"
   inkscape:version="1.1-dev (3d47766, 2020-01-22)">
  <metadata
     id="metadata8336">
    <rdf:RDF>
      <cc:Work
         rdf:about="">
        <dc:format>image/svg+xml</dc:format>
        <dc:type
           rdf:resource="http://purl.org/dc/dcmitype/StillImage" />
        <dc:title></dc:title>
      </cc:Work>
    </rdf:RDF>
  </metadata>
  <defs
     id="defs8334" />

  <sodipodi:namedview
     objecttolerance="10"
     gridtolerance="10"
     guidetolerance="10"
     id="namedview"
     showgrid="true"
     inkscape:zoom="14.539883"
     inkscape:cx="9.4593771"
     inkscape:cy="7.704119"
     inkscape:window-width="1296"
     inkscape:window-height="890"
     inkscape:window-x="65"
     inkscape:window-y="-6"
     inkscape:window-maximized="1"
     inkscape:current-layer="edit-select-all"
     inkscape:document-rotation="0">
    <inkscape:grid
       type="xygrid"
       id="grid" />
  </sodipodi:namedview>
  <g
     transform="translate(-45,-707.36218)"
     inkscape:label="00018"
     id="edit-select-all">
    <path
       inkscape:connector-curvature="0"
       id="rect55443"
       d="m 45,707.36218 h 16 v 16 H 45 Z"
       style="opacity:0"
        />
    <path
       inkscape:connector-curvature="0"
       id="rect55447"
       d="m 45,707.36218 h 1 v 1 h -1 z"
       style="opacity:1"
        />
    <path
       inkscape:connector-curvature="0"
       id="rect55449"
       d="m 47,707.36218 h 1 v 1 h -1 z"
       style="opacity:1"
        />
    <path
       inkscape:connector-curvature="0"
       id="rect55451"
       d="m 49,707.36218 h 1 v 1 h -1 z"
       style="opacity:1"
        />
    <path
       inkscape:connector-curvature="0"
       id="rect55453"
       d="m 51,707.36218 h 1 v 1 h -1 z"
       style="opacity:1"
        />
    <path
       inkscape:connector-curvature="0"
       id="rect55455"
       d="m 53,707.36218 h 1 v 1 h -1 z"
       style="opacity:1"
        />
    <path
       inkscape:connector-curvature="0"
       id="rect55457"
       d="m 55,707.36218 h 1 v 1 h -1 z"
       style="opacity:1"
        />
    <path
       inkscape:connector-curvature="0"
       id="rect55459"
       d="m 57,707.36218 h 1 v 1 h -1 z"
       style="opacity:1"
        />
    <path
       inkscape:connector-curvature="0"
       id="rect55461"
       d="m 59,707.36218 h 1 v 1 h -1 z"
       style="opacity:1"
        />
    <path
       inkscape:connector-curvature="0"
       id="rect55463"
       d="m 45,709.36218 h 1 v 1 h -1 z"
       style="opacity:1"
        />
    <path
       inkscape:connector-curvature="0"
       id="rect55465"
       d="m 45,711.36218 h 1 v 1 h -1 z"
       style="opacity:1"
        />
    <path
       inkscape:connector-curvature="0"
       id="rect55467"
       d="m 45,713.36218 h 1 v 1 h -1 z"
       style="opacity:1"
        />
    <path
       inkscape:connector-curvature="0"
       id="rect55469"
       d="m 45,715.36218 h 1 v 1 h -1 z"
       style="opacity:1"
        />
    <path
       inkscape:connector-curvature="0"
       id="rect55471"
       d="m 45,717.36218 h 1 v 1 h -1 z"
       style="opacity:1"
        />
    <path
       inkscape:connector-curvature="0"
       id="rect55473"
       d="m 45,719.36218 h 1 v 1 h -1 z"
       style="opacity:1"
        />
    <path
       inkscape:connector-curvature="0"
       id="rect55475"
       d="m 45,721.36218 h 1 v 1 h -1 z"
       style="opacity:1"
        />
    <path
       inkscape:connector-curvature="0"
       id="rect55481"
       d="m 59,709.36218 h 1 v 1 h -1 z"
       style="opacity:1"
        />
    <path
       inkscape:connector-curvature="0"
       id="rect55483"
       d="m 59,711.36218 h 1 v 1 h -1 z"
       style="opacity:1"
        />
    <path
       inkscape:connector-curvature="0"
       id="rect55485"
       d="m 59,713.36218 h 1 v 1 h -1 z"
       style="opacity:1"
        />
    <path
       inkscape:connector-curvature="0"
       id="rect55487"
       d="m 59,715.36218 h 1 v 1 h -1 z"
       style="opacity:1"
        />
    <path
       inkscape:connector-curvature="0"
       id="rect55489"
       d="m 59,717.36218 h 1 v 1 h -1 z"
       style="opacity:1"
        />
    <path
       inkscape:connector-curvature="0"
       id="rect55491"
       d="m 59,719.36218 h 1 v 1 h -1 z"
       style="opacity:1"
        />
    <path
       inkscape:connector-curvature="0"
       id="rect55493"
       d="m 59,721.36218 h 1 v 1 h -1 z"
       style="opacity:1"
        />
    <path
       inkscape:connector-curvature="0"
       id="rect55495"
       d="m 47,721.36218 h 1 v 1 h -1 z"
       style="opacity:1"
        />
    <path
       inkscape:connector-curvature="0"
       id="rect55497"
       d="m 49,721.36218 h 1 v 1 h -1 z"
       style="opacity:1"
        />
    <path
       inkscape:connector-curvature="0"
       id="rect55499"
       d="m 51,721.36218 h 1 v 1 h -1 z"
       style="opacity:1"
        />
    <path
       inkscape:connector-curvature="0"
       id="rect55501"
       d="m 53,721.36218 h 1 v 1 h -1 z"
       style="opacity:1"
        />
    <path
       inkscape:connector-curvature="0"
       id="rect55503"
       d="m 55,721.36218 h 1 v 1 h -1 z"
       style="opacity:1"
        />
    <path
       inkscape:connector-curvature="0"
       id="rect55505"
       d="m 57,721.36218 h 1 v 1 h -1 z"
       style="opacity:1"
        />
    <path
       
       sodipodi:nodetypes="cccccccccc"
       inkscape:connector-curvature="0"
       transform="translate(45,707.36218)"
       d="M 2,2 V 13 H 13 V 2 Z m 2,2 h 7 v 7 H 4 Z"
       style="opacity:0.999;fill-opacity:1;stroke:none;stroke-width:0.831519;stroke-linejoin:round;paint-order:stroke fill markers"
       id="rect1813" />
    <rect
       style="opacity:0.999;fill-opacity:1;stroke:none;stroke-width:0.831519;stroke-linejoin:round;paint-order:stroke fill markers"
       id="rect2724"
       width="2"
       height="3.0000026"
       x="47"
       y="713.36218" />
    <rect
       style="opacity:0.999;fill-opacity:1;stroke:none;stroke-width:0.831519;stroke-linejoin:round;paint-order:stroke fill markers"
       id="rect2726"
       width="2"
       height="3.0000026"
       x="56"
       y="713.36218" />
    <rect
       style="opacity:0.999;fill-opacity:1;stroke:none;stroke-width:0.83152;stroke-linejoin:round;paint-order:stroke fill markers"
       id="rect2728"
       width="3"
       height="1.9999992"
       x="51"
       y="709.36218" />
    <rect
       y="718.36218"
       x="51"
       height="1.9999992"
       width="3"
       id="rect2714"
       style="opacity:0.999;fill-opacity:1;stroke:none;stroke-width:0.83152;stroke-linejoin:round;paint-order:stroke fill markers" />
    <rect
       y="718.36218"
       x="47"
       height="2"
       width="2"
       id="rect2716"
       style="opacity:0.999;fill-opacity:1;stroke:none;stroke-width:0.831519;stroke-linejoin:round;paint-order:stroke fill markers" />
    <rect
       y="709.36218"
       x="47"
       height="2"
       width="2"
       id="rect2718"
       style="opacity:0.999;fill-opacity:1;stroke:none;stroke-width:0.831519;stroke-linejoin:round;paint-order:stroke fill markers" />
    <rect
       y="709.36218"
       x="56"
       height="2"
       width="2"
       id="rect2720"
       style="opacity:0.999;fill-opacity:1;stroke:none;stroke-width:0.831519;stroke-linejoin:round;paint-order:stroke fill markers" />
    <rect
       y="718.36218"
       x="56"
       height="2.0000026"
       width="2"
       id="rect2722"
       style="opacity:0.999;fill-opacity:1;stroke:none;stroke-width:0.831519;stroke-linejoin:round;paint-order:stroke fill markers" />
  </g>
</svg>
